<svg width="244" height="172" viewBox="0 0 244 172" fill="none" xmlns="http://www.w3.org/2000/svg">
<path d="M29 1H1V24.5" stroke="white" stroke-miterlimit="10"/>
<path d="M243 24.5V1H215" stroke="white" stroke-miterlimit="10"/>
<path d="M1 150.5V171H29" stroke="white" stroke-miterlimit="10"/>
<path d="M215 171H243V150.5" stroke="white" stroke-miterlimit="10"/>
</svg>
